[
    {
        "foto": "images/b17bhim000.jpg",
        "descricao": "descricaoAtualizada",
        "preco": 5.5,
        "nome": "nome1"
    },
    {
        "foto": "images/b17eva576.jpg",
        "descricao": "descricaoAtualizada",
        "preco": 5.5,
        "nome": "nome2"
    },
    {
        "foto": "images/b17eva577.jpg",
        "descricao": "descricaoAtualizada",
        "preco": 5.5,
        "nome": "nome3"
    },
    {
        "foto": "images/b17eva578.jpg",
        "descricao": "descricaoAtualizada",
        "preco": 5.5,
        "nome": "nome4"
    },
    {
        "foto": "images/b17eva769.jpg",
        "descricao": "descricaoAtualizada",
        "preco": 5.5,
        "nome": "nome5"
    },
    {
        "foto": "images/b17eva770.jpg",
        "descricao": "descricaoAtualizada",
        "preco": 5.5,
        "nome": "nome6"
    },
    {
        "foto": "images/b17eva771.jpg",
        "descricao": "descricaoAtualizada",
        "preco": 5.5,
        "nome": "nome7"
    },
    {
        "foto": "images/b17eva772.jpg",
        "descricao": "descricaoAtualizada",
        "preco": 5.5,
        "nome": "nome8"
    },
    {
        "foto": "images/b17eva773.jpg",
        "descricao": "descricaoAtualizada",
        "preco": 5.5,
        "nome": "nome9"
    },
    {
        "foto": "images/b17eva775.jpg",
        "descricao": "descricaoAtualizada",
        "preco": 5.5,
        "nome": "nome10"
    },
    {
        "foto": "images/b17geoff_vane039.jpg",
        "descricao": "descricaoAtualizada",
        "preco": 5.5,
        "nome": "nome11"
    },
    {
        "foto": "images/b17geoff_vane046.jpg",
        "descricao": "descricaoAtualizada",
        "preco": 5.5,
        "nome": "nome12"
    },
    {
        "foto": "images/b17geoff_vane056.jpg",
        "descricao": "descricaoAtualizada",
        "preco": 5.5,
        "nome": "nome13"
    },
    {
        "foto": "images/b17geoff_vane057.jpg",
        "descricao": "descricaoAtualizada",
        "preco": 5.5,
        "nome": "nome14"
    },
    {
        "foto": "images/b17janneke003.jpg",
        "descricao": "descricaoAtualizada",
        "preco": 5.5,
        "nome": "nome15"
    },
    {
        "foto": "images/b17janneke004.jpg",
        "descricao": "descricaoAtualizada",
        "preco": 5.5,
        "nome": "nome16"
    },
    {
        "foto": "images/b17janneke008.jpg",
        "descricao": "descricaoAtualizada",
        "preco": 5.5,
        "nome": "nome17"
    },
    {
        "foto": "images/b17janneke011.jpg",
        "descricao": "descricaoAtualizada",
        "preco": 5.5,
        "nome": "nome18"
    },
    {
        "foto": "images/b17janneke012.jpg",
        "descricao": "descricaoAtualizada",
        "preco": 5.5,
        "nome": "nome19"
    },
    {
        "foto": "images/b17janneke015.jpg",
        "descricao": "descricaoAtualizada",
        "preco": 5.5,
        "nome": "nome20"
    },
    {
        "foto": "images/b17janneke016.jpg",
        "descricao": "descricaoAtualizada",
        "preco": 5.5,
        "nome": "nome21"
    },
    {
        "foto": "images/b17janneke018.jpg",
        "descricao": "descricaoAtualizada",
        "preco": 5.5,
        "nome": "nome22"
    },
    {
        "foto": "images/b17janneke029.jpg",
        "descricao": "descricaoAtualizada",
        "preco": 5.5,
        "nome": "nome23"
    },
    {
        "foto": "images/b17maartent1353.jpg",
        "descricao": "descricaoAtualizada",
        "preco": 5.5,
        "nome": "nome34"
    },
    {
        "foto": "images/b17maartent1361.jpg",
        "descricao": "descricaoAtualizada",
        "preco": 5.5,
        "nome": "nome25"
    },
    {
        "foto": "images/b17maartent1362.jpg",
        "descricao": "descricaoAtualizada",
        "preco": 5.5,
        "nome": "nome26"
    },
    {
        "foto": "images/flor1.jpg",
        "descricao": "descricaoAtualizada",
        "preco": 5.5,
        "nome": "nome27"
    }
]